^C:\USERS\KAIDEN\DOCUMENTS\VISUAL STUDIO 2013\PROJECTS\CS142MIDTERM1\CS142MIDTERM1\STDAFX.CPP
C:\USERS\KAIDEN\DOCUMENTS\VISUAL STUDIO 2013\PROJECTS\CS142MIDTERM1\CS142MIDTERM1\DEBUG\CS142MIDTERM1.PCH
C:\USERS\KAIDEN\DOCUMENTS\VISUAL STUDIO 2013\PROJECTS\CS142MIDTERM1\CS142MIDTERM1\DEBUG\VC120.PDB
C:\USERS\KAIDEN\DOCUMENTS\VISUAL STUDIO 2013\PROJECTS\CS142MIDTERM1\CS142MIDTERM1\DEBUG\VC120.IDB
C:\USERS\KAIDEN\DOCUMENTS\VISUAL STUDIO 2013\PROJECTS\CS142MIDTERM1\CS142MIDTERM1\DEBUG\STDAFX.OBJ
^C:\USERS\KAIDEN\DOCUMENTS\VISUAL STUDIO 2013\PROJECTS\CS142MIDTERM1\CS142MIDTERM1\CS142MIDTERM1.CPP
C:\USERS\KAIDEN\DOCUMENTS\VISUAL STUDIO 2013\PROJECTS\CS142MIDTERM1\CS142MIDTERM1\DEBUG\VC120.PDB
C:\USERS\KAIDEN\DOCUMENTS\VISUAL STUDIO 2013\PROJECTS\CS142MIDTERM1\CS142MIDTERM1\DEBUG\VC120.IDB
C:\USERS\KAIDEN\DOCUMENTS\VISUAL STUDIO 2013\PROJECTS\CS142MIDTERM1\CS142MIDTERM1\DEBUG\CS142MIDTERM1.OBJ
